<?xml version="1.0" encoding="UTF-8"?>
<!DOCTYPE plist PUBLIC "-//Apple//DTD PLIST 1.0//EN" "http://www.apple.com/DTDs/PropertyList-1.0.dtd">
<plist version="1.0">
<dict>
	<key>iconid</key>
	<string>57D283D1-C78C-4E70-890B-EB027A33E25B</string>
	<key>iconisuserspecified</key>
	<true/>
	<key>items</key>
	<array>
		<dict>
			<key>actionconfig</key>
			<dict>
				<key>path</key>
				<string>/System/Library/PreferencePanes/Appearance.prefPane</string>
			</dict>
			<key>actionuid</key>
			<string>remote.alfred.launchfile</string>
			<key>buttoniconid</key>
			<string>D55EC70C-462F-46F8-B170-E9D80B58214E</string>
			<key>buttonlabel</key>
			<string>General</string>
			<key>itemuid</key>
			<string>EB1FF2C3-A5FD-44FE-BCCB-F45C4F344B47</string>
		</dict>
		<dict>
			<key>actionconfig</key>
			<dict>
				<key>path</key>
				<string>/System/Library/PreferencePanes/DesktopScreenEffectsPref.prefPane</string>
			</dict>
			<key>actionuid</key>
			<string>remote.alfred.launchfile</string>
			<key>buttoniconid</key>
			<string>E7274D6A-C08E-46D5-A8AD-DF9844820CC7</string>
			<key>buttonlabel</key>
			<string>Desktop &amp; Screen Saver</string>
			<key>itemuid</key>
			<string>62AA4B88-BA0F-4207-9ED4-29F8465E04E9</string>
		</dict>
		<dict>
			<key>actionconfig</key>
			<dict>
				<key>path</key>
				<string>/System/Library/PreferencePanes/Dock.prefPane</string>
			</dict>
			<key>actionuid</key>
			<string>remote.alfred.launchfile</string>
			<key>buttoniconid</key>
			<string>57C78FE9-3892-4019-A4D2-91FE3E6A728A</string>
			<key>buttonlabel</key>
			<string>Dock</string>
			<key>itemuid</key>
			<string>D92BF2CF-67F7-46D8-AEB7-419ADE37117F</string>
		</dict>
		<dict>
			<key>actionconfig</key>
			<dict>
				<key>path</key>
				<string>/System/Library/PreferencePanes/Security.prefPane</string>
			</dict>
			<key>actionuid</key>
			<string>remote.alfred.launchfile</string>
			<key>buttoniconid</key>
			<string>2AC5EC6E-8BA1-44EC-B32E-11EAEDE08944</string>
			<key>buttonlabel</key>
			<string>Security &amp; Privacy</string>
			<key>itemuid</key>
			<string>C94D3FBF-983C-4FB6-8E15-696D85BC6576</string>
		</dict>
		<dict>
			<key>actionconfig</key>
			<dict>
				<key>path</key>
				<string>/System/Library/PreferencePanes/Displays.prefPane</string>
			</dict>
			<key>actionuid</key>
			<string>remote.alfred.launchfile</string>
			<key>buttoniconid</key>
			<string>D97C2AA6-936E-40E0-B458-5FED345BD561</string>
			<key>buttonlabel</key>
			<string>Displays</string>
			<key>itemuid</key>
			<string>77376A6D-021F-452F-B117-081CBC45369D</string>
		</dict>
		<dict>
			<key>actionconfig</key>
			<dict>
				<key>path</key>
				<string>/System/Library/PreferencePanes/EnergySaver.prefPane</string>
			</dict>
			<key>actionuid</key>
			<string>remote.alfred.launchfile</string>
			<key>buttoniconid</key>
			<string>8C4C388F-410B-46AB-B2BA-A4465FE5BDEB</string>
			<key>buttonlabel</key>
			<string>Energy Saver</string>
			<key>itemuid</key>
			<string>3C2FC1D1-2D20-4377-B797-94F6205273CE</string>
		</dict>
		<dict>
			<key>actionconfig</key>
			<dict>
				<key>path</key>
				<string>/System/Library/PreferencePanes/PrintAndScan.prefPane</string>
			</dict>
			<key>actionuid</key>
			<string>remote.alfred.launchfile</string>
			<key>buttoniconid</key>
			<string>1A013E75-6F9B-435E-9F8A-743CF88ED650</string>
			<key>buttonlabel</key>
			<string>Printers &amp; Scanners</string>
			<key>itemuid</key>
			<string>5002A4ED-0098-46AF-B3E1-10762A24B162</string>
		</dict>
		<dict>
			<key>actionconfig</key>
			<dict>
				<key>path</key>
				<string>/System/Library/PreferencePanes/Sound.prefPane</string>
			</dict>
			<key>actionuid</key>
			<string>remote.alfred.launchfile</string>
			<key>buttoniconid</key>
			<string>25346116-AF67-4F13-A820-C4FB1F2F998B</string>
			<key>buttonlabel</key>
			<string>Sound</string>
			<key>itemuid</key>
			<string>E9D6B091-46E5-4192-B5DB-A9B2A1004728</string>
		</dict>
		<dict>
			<key>actionconfig</key>
			<dict>
				<key>path</key>
				<string>/System/Library/PreferencePanes/iCloudPref.prefPane</string>
			</dict>
			<key>actionuid</key>
			<string>remote.alfred.launchfile</string>
			<key>buttoniconid</key>
			<string>2CF9FE0C-FA4F-486F-A7AA-2185FCD35563</string>
			<key>buttonlabel</key>
			<string>iCloud</string>
			<key>itemuid</key>
			<string>4E9313B2-07F9-4D76-82A0-D1494006B42E</string>
		</dict>
		<dict>
			<key>actionconfig</key>
			<dict>
				<key>path</key>
				<string>/System/Library/PreferencePanes/Network.prefPane</string>
			</dict>
			<key>actionuid</key>
			<string>remote.alfred.launchfile</string>
			<key>buttoniconid</key>
			<string>D0E75E4E-1E53-49C2-8EEC-8C89C07BEDD4</string>
			<key>buttonlabel</key>
			<string>Network</string>
			<key>itemuid</key>
			<string>61582C19-53C9-4C0B-8CC0-C7A21232A855</string>
		</dict>
		<dict>
			<key>actionconfig</key>
			<dict>
				<key>path</key>
				<string>/System/Library/PreferencePanes/Bluetooth.prefPane</string>
			</dict>
			<key>actionuid</key>
			<string>remote.alfred.launchfile</string>
			<key>buttoniconid</key>
			<string>76BB8773-8701-401A-A406-E6834BC6700E</string>
			<key>buttonlabel</key>
			<string>Bluetooth</string>
			<key>itemuid</key>
			<string>387BBE7B-B3E6-411B-B661-FEF1E9B18D37</string>
		</dict>
		<dict>
			<key>actionconfig</key>
			<dict>
				<key>path</key>
				<string>/System/Library/PreferencePanes/SharingPref.prefPane</string>
			</dict>
			<key>actionuid</key>
			<string>remote.alfred.launchfile</string>
			<key>buttoniconid</key>
			<string>850DEAE8-0DD5-4A29-90CF-34B3E5946632</string>
			<key>buttonlabel</key>
			<string>Sharing</string>
			<key>itemuid</key>
			<string>26333569-BDCD-46C2-BBCE-F66744223665</string>
		</dict>
		<dict>
			<key>actionconfig</key>
			<dict>
				<key>path</key>
				<string>/System/Library/PreferencePanes/Accounts.prefPane</string>
			</dict>
			<key>actionuid</key>
			<string>remote.alfred.launchfile</string>
			<key>buttoniconid</key>
			<string>556FB8C4-E36A-432F-AEC7-41BFE38904E0</string>
			<key>buttonlabel</key>
			<string>Users &amp; Groups</string>
			<key>itemuid</key>
			<string>11166873-1099-4250-8504-CE8B2098E63C</string>
		</dict>
		<dict>
			<key>actionconfig</key>
			<dict>
				<key>path</key>
				<string>/System/Library/PreferencePanes/ParentalControls.prefPane</string>
			</dict>
			<key>actionuid</key>
			<string>remote.alfred.launchfile</string>
			<key>buttoniconid</key>
			<string>DFC455EB-1B1C-4EB8-BCEC-551324C65AC3</string>
			<key>buttonlabel</key>
			<string>Parental Controls</string>
			<key>itemuid</key>
			<string>5F48BC31-D6E5-4761-902E-3B8EE25E57C6</string>
		</dict>
		<dict>
			<key>actionconfig</key>
			<dict>
				<key>path</key>
				<string>/System/Library/PreferencePanes/DateAndTime.prefPane</string>
			</dict>
			<key>actionuid</key>
			<string>remote.alfred.launchfile</string>
			<key>buttoniconid</key>
			<string>98F6BCC5-AADE-4D40-8043-5A17D40656F9</string>
			<key>buttonlabel</key>
			<string>Date &amp; Time</string>
			<key>itemuid</key>
			<string>F7124987-F9C5-4816-887E-345A0A0071B7</string>
		</dict>
		<dict>
			<key>actionconfig</key>
			<dict>
				<key>path</key>
				<string>/System/Library/PreferencePanes/TimeMachine.prefPane</string>
			</dict>
			<key>actionuid</key>
			<string>remote.alfred.launchfile</string>
			<key>buttoniconid</key>
			<string>4525E24C-F2DE-455B-B2B6-E1C897D1F093</string>
			<key>buttonlabel</key>
			<string>Time Machine</string>
			<key>itemuid</key>
			<string>BAC617DD-56EC-4DBF-A846-A611897FD442</string>
		</dict>
	</array>
	<key>subtitle</key>
	<string>Launch macOS Preferences</string>
	<key>title</key>
	<string>Preferences</string>
</dict>
</plist>
