<?xml version="1.0" encoding="UTF-8"?>
<!DOCTYPE plist PUBLIC "-//Apple//DTD PLIST 1.0//EN" "http://www.apple.com/DTDs/PropertyList-1.0.dtd">
<plist version="1.0">
<dict>
	<key>iconid</key>
	<string>E4838A90-91DC-49F6-8021-580E747EF79F</string>
	<key>iconisuserspecified</key>
	<true/>
	<key>items</key>
	<array>
		<dict>
			<key>actionconfig</key>
			<dict>
				<key>url</key>
				<string>https://www.wikipedia.org</string>
			</dict>
			<key>actionuid</key>
			<string>remote.alfred.openurl</string>
			<key>buttoniconid</key>
			<string>03DB09FC-9962-4892-8526-6099BE3B4F10</string>
			<key>buttonlabel</key>
			<string></string>
			<key>itemuid</key>
			<string>D07C469E-5EC1-401F-87D7-361AC227C955</string>
		</dict>
		<dict>
			<key>actionconfig</key>
			<dict>
				<key>url</key>
				<string>https://twitter.com</string>
			</dict>
			<key>actionuid</key>
			<string>remote.alfred.openurl</string>
			<key>buttoniconid</key>
			<string>AF188350-E4F0-44CD-8933-8F0DF0D6FCA0</string>
			<key>buttonlabel</key>
			<string></string>
			<key>itemuid</key>
			<string>A4F77B21-3BD3-44BC-A15C-F8B745A3E713</string>
		</dict>
		<dict>
			<key>actionconfig</key>
			<dict>
				<key>url</key>
				<string>https://www.facebook.com</string>
			</dict>
			<key>actionuid</key>
			<string>remote.alfred.openurl</string>
			<key>buttoniconid</key>
			<string>3D38E1ED-3584-4982-B6E5-6021AB49BB43</string>
			<key>buttonlabel</key>
			<string></string>
			<key>itemuid</key>
			<string>C39576B8-2A9F-41EE-8B1A-89D78C0C1A01</string>
		</dict>
		<dict>
			<key>actionconfig</key>
			<dict>
				<key>url</key>
				<string>https://www.youtube.com</string>
			</dict>
			<key>actionuid</key>
			<string>remote.alfred.openurl</string>
			<key>buttoniconid</key>
			<string>D1049D05-5541-4B0D-B2A4-9B5F280606B8</string>
			<key>buttonlabel</key>
			<string></string>
			<key>itemuid</key>
			<string>1456DE46-288E-420D-9918-5E37447BF5B8</string>
		</dict>
		<dict>
			<key>actionconfig</key>
			<dict>
				<key>url</key>
				<string>http://www.apple.com</string>
			</dict>
			<key>actionuid</key>
			<string>remote.alfred.openurl</string>
			<key>buttoniconid</key>
			<string>22070369-9290-4A45-B578-23E223DB334E</string>
			<key>buttonlabel</key>
			<string></string>
			<key>itemuid</key>
			<string>62AB3E7E-1848-4569-81A5-EA191F3CBC53</string>
		</dict>
		<dict>
			<key>actionconfig</key>
			<dict>
				<key>url</key>
				<string>http://www.bbc.co.uk/news</string>
			</dict>
			<key>actionuid</key>
			<string>remote.alfred.openurl</string>
			<key>buttoniconid</key>
			<string>504FD0E1-39BF-416B-A0B8-F6C70B14FF97</string>
			<key>buttonlabel</key>
			<string></string>
			<key>itemuid</key>
			<string>ADB06321-D69A-4F8D-B3DB-B1D91A73F556</string>
		</dict>
		<dict>
			<key>actionconfig</key>
			<dict>
				<key>url</key>
				<string>https://www.alfredapp.com</string>
			</dict>
			<key>actionuid</key>
			<string>remote.alfred.openurl</string>
			<key>buttoniconid</key>
			<string>9592A81D-65C1-4258-BD18-E217F30D34B3</string>
			<key>buttonlabel</key>
			<string></string>
			<key>itemuid</key>
			<string>A18EDBAC-76CC-4053-B4C1-B1B1940D0900</string>
		</dict>
		<dict/>
		<dict/>
		<dict/>
		<dict/>
		<dict/>
		<dict>
			<key>actionconfig</key>
			<dict>
				<key>url</key>
				<string>https://www.alfredapp.com/help/</string>
			</dict>
			<key>actionuid</key>
			<string>remote.alfred.openurl</string>
			<key>buttoniconid</key>
			<string>5CEA0EAE-6A37-443F-8FA2-84D98CA2DAEF</string>
			<key>buttonlabel</key>
			<string>Alfred Support</string>
			<key>itemuid</key>
			<string>B8015B65-2B26-46BE-B806-C677C2685D68</string>
		</dict>
		<dict>
			<key>actionconfig</key>
			<dict>
				<key>url</key>
				<string>https://www.alfredapp.com/powerpack/buy/</string>
			</dict>
			<key>actionuid</key>
			<string>remote.alfred.openurl</string>
			<key>buttoniconid</key>
			<string>8D7D1505-F2F5-47B4-8669-A9A38E74855F</string>
			<key>buttonlabel</key>
			<string>Buy Alfred</string>
			<key>itemuid</key>
			<string>AABAC7AC-8A40-40D3-AD7E-B3CE063E2E27</string>
		</dict>
		<dict>
			<key>actionconfig</key>
			<dict>
				<key>resultsubtitle</key>
				<string>Look for help on '{query}'</string>
				<key>resulttitle</key>
				<string>Search Alfred Help</string>
				<key>spaces</key>
				<string>+</string>
				<key>url</key>
				<string>https://www.alfredapp.com/search/?q={query}</string>
				<key>utf8</key>
				<true/>
			</dict>
			<key>actionuid</key>
			<string>remote.alfred.openurl</string>
			<key>buttoniconid</key>
			<string>588360FD-424E-48C3-88BD-1EB03984AD73</string>
			<key>buttonlabel</key>
			<string>Search Help</string>
			<key>itemuid</key>
			<string>7385FBB9-FC92-47C4-B4A1-32DCD4A384B8</string>
		</dict>
		<dict/>
	</array>
	<key>subtitle</key>
	<string>URLs and Custom Searches</string>
	<key>title</key>
	<string>Bookmarks</string>
</dict>
</plist>
