{
	// Place your snippets for go here. Each snippet is defined under a snippet name and has a prefix, body and 
	// description. The prefix is what is used to trigger the snippet and the body will be expanded and inserted. Possible variables are:
	// $1, $2 for tab stops, $0 for the final cursor position, and ${1:label}, ${2:another} for placeholders. Placeholders with the 
	// same ids are connected.
	// Example:
	// "Print to console": {
	// 	"prefix": "log",
	// 	"body": [
	// 		"console.log('$1');",
	// 		"$2"
	// 	],
	// 	"description": "Log output to console"
	// }

	"Log error with fields": {
		"prefix": "log.with.err",
		"body": [
			"log.WithFields(log.Fields{",
			"	\"err\": err,",
			"}).Error(\"$1\")",
		],
		"description": "Error log output with fields"
	},
	"Log info with fields": {
		"prefix": "log.with.info",
		"body": [
			"log.WithFields(log.Fields{",
			"\"$1\": $2",
			"}).Info(\"$3\")",
		],
		"description": "Info log output with fields"
	},
	"Log debug with fields": {
		"prefix": "log.with.debug",
		"body": [
			"log.WithFields(log.Fields{",
			"	\"$1\": $2,",
			"}).Debug(\"$3\")",
		],
		"description": "Info debug output with fields"
	},
	"Error with log": {
		"prefix": "if err",
		"body": [
			"if err != nil {",
			"	log.WithFields(log.Fields{",
			"		\"err\":  err,",
			"	}).Error(\"$1\")",
			"	return nil, errors.Wrap(err, \"$1\")",
			"}"
		]
	},
	"Import testify/assert": {
		"prefix": "testify assert",
		"body": [
			"\"github.com/stretchr/testify/assert\""
		]
	},
	"Import testify/mock": {
		"prefix": "testify mock",
		"body": [
			"\"github.com/stretchr/testify/mock\""
		]
	},
	"code.squarespace.net": {
		"prefix": "code.squarespace.net",
		"body": [
			"code.squarespace.net"
		]
	},
	"test file stub": {
		"prefix": "test file",
		"body": [
			"package $1",
			"",
			"import (",
			"    \"testing\"",
			"",
			"    \"github.com/stretchr/testify/assert\"",
			")",
			"",
			"func TestX(t *testing.T) {",
			"    assert.True(t, true)",
			"}"
		]
	},
	"pkg/errors import": {
		"prefix": "pkg/errors",
		"body": [
			"\"github.com/pkg/errors\""
		]
	}
}